-7.44551502557251,-5.36942273010252,0.284763835746194,7.66003204498503,1.2145811820958,-2.28635888199832,0.514569166792571
0.363747658491622,-0.771717318175478,0.369960101467201,-0.099638743305532,-1.00890162182558,0.835285165943603,0.0611537764125562
-5.1288722480533,-2.89303046224116,0.843665461454638,6.37781046927553,-0.0528690299571013,-0.99064667971982,2.1385004960953
2.25167637282834,0.588757746852647,-0.293440475437343,-3.61266692001682,0.517110000186022,-1.11593234802283,1.16694213205437
0.00564254885562284,0.967818097536111,-0.697503747305756,2.12302039915012,1.81942786756127,-0.732165566111359,-1.04121599352197
-1.02195172858347,-0.184126668294605,2.11897695009872,1.20082500682216,0.129796659691833,-0.698184778595909,1.45566655191764
0.708411701247868,0.428824389491935,1.21597824223131,1.29316636334271,1.20514189465145,0.527208917020802,-0.47329229343702
0.355957859954954,0.682355239508238,-0.169886279924885,0.950801020682518,-0.985948393912135,1.56594197663714,-0.0439908066049173
-0.034201995705462,1.48250554130868,0.756394437970574,-1.20813735404588,-0.520952019341773,-0.764533841687676,0.129940116430842
0.0876738890234428,0.176477517200587,-0.540297156412569,-0.653897657768357,0.254825058494109,-0.304295478844585,0.104661821133086
4.48288565595912,4.36361467516544,-0.119783074385403,-4.85366986050303,-0.369261880264423,1.01830726848246,-0.221588105350122
-22.5645999596342,-21.7843478620894,0.0708015319678005,22.496216575759,2.10376022177877,-8.59917232007679,0.918513760891055
0.0925885099561196,-1.15167075261745,2.12952700575734,0.178667100206001,-1.1250010421994,1.50758767166776,0.673776762902759
0.381037355350719,0.654690308893533,0.170934570160311,-0.0261757986987441,-1.06399930186696,2.50103517732064,-0.899456391926064
4.04515184137221,2.85587983195655,-0.408793518958951,-4.20008658965481,0.760558550511838,0.530230136630746,1.02155447507919
-1.90464614924087,2.67409889875385,-0.491293820487735,-2.00045507264139,0.427174597214684,0.274258172930144,-0.984322881777706
-1.50700317160721,0.666461583797377,-2.05142716494344,-0.711814142336225,0.445130604474258,0.938595000689358,1.3239972936807
0.373759230539784,0.120231776261007,-0.468682620530549,0.794869786004387,0.106192007735535,1.07161679063171,0.962672769846788
-8.95785098472422,-7.00340763659099,-0.00766975231391271,8.03197584323714,0.797610320415783,-2.84528889111329,2.47125754302525
1.06176302285968,1.15744927021055,-1.00671839944261,-1.47660224661579,-0.0404884182705052,-1.06512040009947,0.646069634592733
0.237360460115991,1.81449724160458,-0.933336956021582,-1.34599669829546,-1.15451409306334,0.949740220335624,-2.38242532433786
0.967314354888716,-0.990063587488255,1.40763666867045,-0.527213886980782,-0.90937713640366,1.6678873452797,-1.60918615382981
-2.71026716338538,-1.13449546322581,0.774873564937828,5.49739907201992,0.314006887513285,-0.809861991613477,2.25622360607767
0.351996365881416,-0.296798467729966,0.32311928584994,0.41214421278049,0.677404726257069,0.889451688074674,0.71762499904758
-0.259537329966669,-0.009359810837115,-0.824502318726459,-1.06637410674495,-0.336225889051763,-0.455097443608636,0.891830655549918
-0.0463548485282239,-0.692764339245699,-0.760825427580021,-1.19464082849992,0.180126822717665,0.402727066101102,0.341381769355858
1.41874231562433,0.496667511388294,0.404018211021107,-0.499802002895308,2.73066160167484,1.35631919333301,-0.33711780782269
1.86681559113215,1.07061288310587,0.615942167273848,0.368144338837811,0.575004031251182,0.641481213099055,-1.44018895415645
9.41695439486142,6.62471092380088,0.552787842021125,-9.40412031916295,0.428816099995137,2.4535817296046,-2.18072139776437
-1.24665793173508,-1.97456986148269,0.613232740865836,2.81971521819695,-1.60666115365114,0.320405524441834,-1.12533827189425